{
  "en": {
    "name": "English",
    "momentLocales": "en-gb",
    "currency": "USD"
  },
  "zh": {
    "name": "Chinese",
    "momentLocales": "zh-cn",
    "currency": "CNY"
  },
  "es": {
    "name": "Spanish",
    "momentLocales": "es",
    "currency": "EUR"
  },
  "ja": {
    "name": "Japanese",
    "momentLocales": "ja",
    "currency": "JPY"
  },
  "ar": {
    "name": "Arabic",
    "momentLocales": "ar",
    "currency": "USD",
    "rtl": true
  }
}